::1 - - [24/Oct/2023:09:01:59 +0000] "GET /api/todos HTTP/1.1" 200 454
::1 - - [24/Oct/2023:09:02:22 +0000] "GET /api/todos HTTP/1.1" 200 454
::1 - - [24/Oct/2023:10:27:57 +0000] "GET /api/todos HTTP/1.1" 500 33
::1 - - [24/Oct/2023:10:27:58 +0000] "GET /favicon.ico HTTP/1.1" 404 150
::1 - - [24/Oct/2023:10:30:48 +0000] "GET /api/todos HTTP/1.1" 500 33
::1 - - [24/Oct/2023:10:32:35 +0000] "GET /api/todos HTTP/1.1" 500 33
::1 - - [24/Oct/2023:10:32:47 +0000] "GET /api/todos/1 HTTP/1.1" 500 33
::1 - - [24/Oct/2023:10:32:49 +0000] "GET /api/todos HTTP/1.1" 500 33
::1 - - [24/Oct/2023:10:34:09 +0000] "GET /api/todos HTTP/1.1" 500 33
::1 - - [24/Oct/2023:10:34:42 +0000] "GET /api/todos HTTP/1.1" 500 33
::1 - - [24/Oct/2023:10:38:41 +0000] "GET /api/todos HTTP/1.1" 500 33
::1 - - [24/Oct/2023:10:38:52 +0000] "GET /api/todos HTTP/1.1" 500 33
::1 - - [24/Oct/2023:10:38:53 +0000] "GET /api/todos HTTP/1.1" 500 33
::1 - - [24/Oct/2023:10:38:54 +0000] "GET /api/todos HTTP/1.1" 500 33
::1 - - [24/Oct/2023:10:39:29 +0000] "GET /api/todos HTTP/1.1" 500 33
::1 - - [24/Oct/2023:10:39:30 +0000] "GET /api/todos HTTP/1.1" 500 33
::1 - - [24/Oct/2023:10:39:56 +0000] "GET /api/todos HTTP/1.1" 500 33
::1 - - [24/Oct/2023:10:39:58 +0000] "GET /api/todos HTTP/1.1" 500 33
::1 - - [24/Oct/2023:10:39:59 +0000] "GET /api/todos HTTP/1.1" 500 33
::1 - - [24/Oct/2023:10:40:00 +0000] "GET /api/todos HTTP/1.1" 500 33
::1 - - [24/Oct/2023:10:42:33 +0000] "GET /api/todos/1 HTTP/1.1" 500 33
::1 - - [24/Oct/2023:10:42:51 +0000] "GET /api/todos/1 HTTP/1.1" 500 33
::1 - - [24/Oct/2023:10:44:51 +0000] "GET /api/todos/1 HTTP/1.1" 500 33
::1 - - [24/Oct/2023:10:45:43 +0000] "GET /api/todos/1 HTTP/1.1" 500 33
::1 - - [24/Oct/2023:10:45:45 +0000] "GET /api/todos HTTP/1.1" 500 33
::1 - - [24/Oct/2023:10:50:17 +0000] "GET /api/todos HTTP/1.1" 500 33
::ffff:127.0.0.1 - - [24/Oct/2023:10:51:05 +0000] "GET /api/todos HTTP/1.1" 500 33
::ffff:127.0.0.1 - - [24/Oct/2023:10:51:09 +0000] "GET /api/todos HTTP/1.1" 500 33
::ffff:127.0.0.1 - - [24/Oct/2023:10:51:09 +0000] "GET /api/todos HTTP/1.1" 500 33
::ffff:127.0.0.1 - - [24/Oct/2023:10:51:09 +0000] "GET /api/todos HTTP/1.1" 500 33
::ffff:127.0.0.1 - - [24/Oct/2023:10:51:09 +0000] "GET /api/todos HTTP/1.1" 500 33
::ffff:127.0.0.1 - - [24/Oct/2023:10:51:10 +0000] "GET /api/todos HTTP/1.1" 500 33
::1 - - [24/Oct/2023:10:52:12 +0000] "GET /api/todos HTTP/1.1" 500 33
::1 - - [24/Oct/2023:10:53:45 +0000] "GET /api/todos HTTP/1.1" 500 33
::1 - - [24/Oct/2023:10:58:31 +0000] "GET /api/todos/1 HTTP/1.1" 500 33
::1 - - [24/Oct/2023:11:01:29 +0000] "GET /api/todos/1 HTTP/1.1" 500 33
::1 - - [24/Oct/2023:11:01:31 +0000] "GET /api/todos HTTP/1.1" 500 33
::1 - - [24/Oct/2023:11:21:39 +0000] "GET /api/todos HTTP/1.1" 500 33
::1 - - [24/Oct/2023:11:23:32 +0000] "GET /api/todos HTTP/1.1" 500 33
::1 - - [24/Oct/2023:11:23:48 +0000] "GET /api/todos HTTP/1.1" 500 33
::1 - - [24/Oct/2023:11:37:46 +0000] "GET /api/todos HTTP/1.1" 200 454
::1 - - [24/Oct/2023:11:38:13 +0000] "GET /api/todos HTTP/1.1" 304 -
::1 - - [24/Oct/2023:11:38:27 +0000] "GET /api/todos/1 HTTP/1.1" 200 111
::ffff:172.18.0.1 - - [24/Oct/2023:14:08:25 +0000] "GET / HTTP/1.1" 404 139
::ffff:172.18.0.1 - - [24/Oct/2023:14:08:34 +0000] "GET / HTTP/1.1" 404 139
::1 - - [25/Oct/2023:08:26:42 +0000] "GET /api/todos HTTP/1.1" 200 454
::1 - - [25/Oct/2023:08:26:43 +0000] "GET /favicon.ico HTTP/1.1" 404 150
::1 - - [25/Oct/2023:08:27:00 +0000] "GET /api/todos/1 HTTP/1.1" 304 -
::1 - - [25/Oct/2023:08:47:37 +0000] "GET /api/todos HTTP/1.1" 304 -
::1 - - [25/Oct/2023:09:03:57 +0000] "GET /api/todos HTTP/1.1" 200 454
::1 - - [25/Oct/2023:09:04:07 +0000] "GET /api/todos/6 HTTP/1.1" 200 168
::1 - - [25/Oct/2023:09:04:26 +0000] "POST /api/todos HTTP/1.1" 200 145
::1 - - [25/Oct/2023:09:05:21 +0000] "DELETE /api/todos/8 HTTP/1.1" 200 48
::1 - - [25/Oct/2023:09:05:30 +0000] "POST /api/todos HTTP/1.1" 200 145
::1 - - [25/Oct/2023:09:06:58 +0000] "DELETE /api/todos/9 HTTP/1.1" 200 48
::1 - - [25/Oct/2023:09:07:03 +0000] "POST /api/todos HTTP/1.1" 200 146
::1 - - [25/Oct/2023:09:08:27 +0000] "DELETE /api/todos/10 HTTP/1.1" 200 49
::1 - - [25/Oct/2023:09:08:32 +0000] "POST /api/todos HTTP/1.1" 200 146
::1 - - [25/Oct/2023:09:08:47 +0000] "GET /api/todos HTTP/1.1" 200 555
::1 - - [25/Oct/2023:09:09:02 +0000] "DELETE /api/todos/11 HTTP/1.1" 200 49
::1 - - [25/Oct/2023:09:17:11 +0000] "POST /api/todos HTTP/1.1" 200 155
::1 - - [25/Oct/2023:09:17:59 +0000] "PUT /api/todos/12 HTTP/1.1" 500 43
::1 - - [25/Oct/2023:09:24:48 +0000] "PUT /api/todos/12 HTTP/1.1" 500 43
::1 - - [25/Oct/2023:09:24:55 +0000] "GET /api/todos HTTP/1.1" 200 564
::1 - - [25/Oct/2023:09:26:12 +0000] "PUT /api/todos/12 HTTP/1.1" 500 43
::1 - - [25/Oct/2023:09:29:56 +0000] "PUT /api/todos/12 HTTP/1.1" 500 43
::1 - - [25/Oct/2023:09:30:18 +0000] "PUT /api/todos/12 HTTP/1.1" 500 43
::1 - - [25/Oct/2023:09:30:22 +0000] "PUT /api/todos/2 HTTP/1.1" 500 42
::1 - - [25/Oct/2023:09:30:27 +0000] "GET /api/todos HTTP/1.1" 200 564
::1 - - [25/Oct/2023:09:30:45 +0000] "PUT /api/todos/12 HTTP/1.1" 500 43
::1 - - [25/Oct/2023:09:32:16 +0000] "PUT /api/todos/12 HTTP/1.1" 500 43
::1 - - [25/Oct/2023:09:32:23 +0000] "PUT /api/todos/12 HTTP/1.1" 500 43
::1 - - [25/Oct/2023:09:32:27 +0000] "PUT /api/todos/1 HTTP/1.1" 500 42
::1 - - [25/Oct/2023:09:37:31 +0000] "PUT /api/todos/12 HTTP/1.1" 500 43
::1 - - [25/Oct/2023:09:38:44 +0000] "PUT /api/todos/12 HTTP/1.1" 500 43
::1 - - [25/Oct/2023:09:47:02 +0000] "GET /api/todos HTTP/1.1" 200 564
::1 - - [25/Oct/2023:09:47:07 +0000] "GET /api/todos/6 HTTP/1.1" 200 168
::1 - - [25/Oct/2023:09:47:18 +0000] "POST /api/todos HTTP/1.1" 200 156
::1 - - [25/Oct/2023:09:47:30 +0000] "PUT /api/todos/13 HTTP/1.1" 200 167
::1 - - [25/Oct/2023:10:06:07 +0000] "GET /api/todos HTTP/1.1" 200 4510
::1 - - [25/Oct/2023:10:06:59 +0000] "GET /api/todos HTTP/1.1" 200 4534
::1 - - [25/Oct/2023:10:08:20 +0000] "GET /api/todos HTTP/1.1" 200 4534
::ffff:172.19.0.1 - - [25/Oct/2023:11:06:06 +0000] "GET /api/check HTTP/1.1" 304 -
::ffff:172.19.0.1 - - [25/Oct/2023:11:06:11 +0000] "GET /api/todos HTTP/1.1" 500 33
::ffff:172.19.0.1 - - [25/Oct/2023:11:06:16 +0000] "GET /api/check HTTP/1.1" 304 -
::1 - - [25/Oct/2023:14:16:00 +0000] "GET /api/todos HTTP/1.1" 200 675
::1 - - [25/Oct/2023:14:16:00 +0000] "GET /favicon.ico HTTP/1.1" 404 150
::ffff:127.0.0.1 - - [25/Oct/2023:14:38:00 +0000] "GET /api/todos/check HTTP/1.1" 200 25
::ffff:127.0.0.1 - - [25/Oct/2023:14:38:00 +0000] "GET /api/todos/all HTTP/1.1" 500 33
::ffff:127.0.0.1 - - [25/Oct/2023:14:38:00 +0000] "POST /api/todos/add HTTP/1.1" 500 33
::ffff:127.0.0.1 - - [25/Oct/2023:14:38:00 +0000] "GET /api/todos/undefined HTTP/1.1" 500 33
::ffff:127.0.0.1 - - [25/Oct/2023:14:38:01 +0000] "PUT /api/todos/edit/undefined HTTP/1.1" 500 50
::ffff:127.0.0.1 - - [25/Oct/2023:14:38:01 +0000] "DELETE /api/todos/delete/undefined HTTP/1.1" 500 50
::ffff:127.0.0.1 - - [25/Oct/2023:14:40:46 +0000] "GET /api/todos/check HTTP/1.1" 200 25
::ffff:127.0.0.1 - - [25/Oct/2023:14:40:46 +0000] "GET /api/todos/all HTTP/1.1" 200 675
::ffff:127.0.0.1 - - [25/Oct/2023:14:40:47 +0000] "POST /api/todos/add HTTP/1.1" 200 153
::ffff:127.0.0.1 - - [25/Oct/2023:14:40:47 +0000] "GET /api/todos/14 HTTP/1.1" 200 161
::ffff:127.0.0.1 - - [25/Oct/2023:14:40:47 +0000] "PUT /api/todos/edit/14 HTTP/1.1" 200 167
::ffff:127.0.0.1 - - [25/Oct/2023:14:40:47 +0000] "DELETE /api/todos/delete/14 HTTP/1.1" 200 49
::ffff:127.0.0.1 - - [25/Oct/2023:14:43:50 +0000] "POST /api/todos/add HTTP/1.1" 200 156
::ffff:127.0.0.1 - - [25/Oct/2023:14:43:50 +0000] "GET /api/todos/all HTTP/1.1" 200 786
::ffff:127.0.0.1 - - [25/Oct/2023:14:43:50 +0000] "GET /api/todos/1 HTTP/1.1" 200 164
::ffff:127.0.0.1 - - [25/Oct/2023:14:43:51 +0000] "PUT /api/todos/edit/1 HTTP/1.1" 200 165
::ffff:127.0.0.1 - - [25/Oct/2023:14:43:51 +0000] "DELETE /api/todos/delete/1 HTTP/1.1" 200 48
::ffff:127.0.0.1 - - [25/Oct/2023:14:48:40 +0000] "POST /api/todos/add HTTP/1.1" 200 161
::ffff:127.0.0.1 - - [25/Oct/2023:14:48:40 +0000] "GET /api/todos/all HTTP/1.1" 200 790
::ffff:127.0.0.1 - - [25/Oct/2023:14:48:40 +0000] "GET /api/todos/1 HTTP/1.1" 404 28
::ffff:127.0.0.1 - - [25/Oct/2023:14:48:41 +0000] "PUT /api/todos/edit/undefined HTTP/1.1" 500 50
::ffff:127.0.0.1 - - [25/Oct/2023:14:48:41 +0000] "DELETE /api/todos/delete/undefined HTTP/1.1" 500 50
::1 - - [25/Oct/2023:14:49:42 +0000] "GET /api/todos HTTP/1.1" 404 148
::1 - - [25/Oct/2023:14:49:43 +0000] "GET /api/todos HTTP/1.1" 404 148
::1 - - [25/Oct/2023:14:49:47 +0000] "GET /api/todos/all HTTP/1.1" 200 790
::ffff:127.0.0.1 - - [25/Oct/2023:14:50:30 +0000] "POST /api/todos/add HTTP/1.1" 200 155
::ffff:127.0.0.1 - - [25/Oct/2023:14:50:30 +0000] "GET /api/todos/all HTTP/1.1" 200 900
::ffff:127.0.0.1 - - [25/Oct/2023:14:50:30 +0000] "GET /api/todos/16 HTTP/1.1" 200 169
::ffff:127.0.0.1 - - [25/Oct/2023:14:50:31 +0000] "PUT /api/todos/edit/undefined HTTP/1.1" 500 50
::ffff:127.0.0.1 - - [25/Oct/2023:14:50:31 +0000] "DELETE /api/todos/delete/undefined HTTP/1.1" 500 50
::1 - - [25/Oct/2023:14:51:11 +0000] "GET /api/todos HTTP/1.1" 404 148
::1 - - [25/Oct/2023:14:51:12 +0000] "GET /api/todos HTTP/1.1" 404 148
::1 - - [25/Oct/2023:14:51:16 +0000] "GET /api/todos/all HTTP/1.1" 200 900
::ffff:127.0.0.1 - - [25/Oct/2023:14:52:28 +0000] "POST /api/todos/add HTTP/1.1" 200 159
::ffff:127.0.0.1 - - [25/Oct/2023:14:52:28 +0000] "GET /api/todos/all HTTP/1.1" 200 1014
::ffff:127.0.0.1 - - [25/Oct/2023:14:52:28 +0000] "GET /api/todos/16 HTTP/1.1" 200 169
::ffff:127.0.0.1 - - [25/Oct/2023:14:52:28 +0000] "PUT /api/todos/edit/undefined HTTP/1.1" 500 50
::ffff:127.0.0.1 - - [25/Oct/2023:14:52:28 +0000] "DELETE /api/todos/delete/undefined HTTP/1.1" 500 50
::1 - - [25/Oct/2023:14:53:10 +0000] "GET /api/todos HTTP/1.1" 404 148
::1 - - [25/Oct/2023:14:53:14 +0000] "GET /api/todos/all HTTP/1.1" 200 1014
::1 - - [25/Oct/2023:14:53:19 +0000] "GET /api/todos/all/2 HTTP/1.1" 404 154
::1 - - [25/Oct/2023:14:53:22 +0000] "GET /api/todos/all HTTP/1.1" 304 -
::1 - - [25/Oct/2023:14:53:23 +0000] "GET /api/todos/2 HTTP/1.1" 200 167
::ffff:127.0.0.1 - - [25/Oct/2023:14:54:36 +0000] "POST /api/todos/add HTTP/1.1" 200 159
::ffff:127.0.0.1 - - [25/Oct/2023:14:54:36 +0000] "GET /api/todos/all HTTP/1.1" 200 1128
::ffff:127.0.0.1 - - [25/Oct/2023:14:54:36 +0000] "GET /api/todos/12 HTTP/1.1" 200 163
::ffff:127.0.0.1 - - [25/Oct/2023:14:54:36 +0000] "PUT /api/todos/edit/12 HTTP/1.1" 200 174
::ffff:127.0.0.1 - - [25/Oct/2023:14:54:36 +0000] "DELETE /api/todos/delete/12 HTTP/1.1" 200 49
::ffff:127.0.0.1 - - [25/Oct/2023:14:55:41 +0000] "POST /api/todos/add HTTP/1.1" 200 161
::ffff:127.0.0.1 - - [25/Oct/2023:14:55:41 +0000] "GET /api/todos/all HTTP/1.1" 200 1134
::ffff:127.0.0.1 - - [25/Oct/2023:14:55:41 +0000] "GET /api/todos/19 HTTP/1.1" 200 167
::ffff:127.0.0.1 - - [25/Oct/2023:14:55:41 +0000] "PUT /api/todos/edit/undefined HTTP/1.1" 500 50
::ffff:127.0.0.1 - - [25/Oct/2023:14:55:42 +0000] "DELETE /api/todos/delete/undefined HTTP/1.1" 500 50
::1 - - [25/Oct/2023:14:56:20 +0000] "GET /api/todos/all HTTP/1.1" 200 1134
::ffff:127.0.0.1 - - [25/Oct/2023:14:57:35 +0000] "POST /api/todos/add HTTP/1.1" 200 158
::ffff:127.0.0.1 - - [25/Oct/2023:14:57:35 +0000] "GET /api/todos/all HTTP/1.1" 200 1247
::ffff:127.0.0.1 - - [25/Oct/2023:14:57:35 +0000] "GET /api/todos/20 HTTP/1.1" 200 169
::ffff:127.0.0.1 - - [25/Oct/2023:14:57:36 +0000] "PUT /api/todos/edit/20 HTTP/1.1" 200 180
::ffff:127.0.0.1 - - [25/Oct/2023:14:57:36 +0000] "DELETE /api/todos/delete/20 HTTP/1.1" 200 49
::1 - - [25/Oct/2023:16:03:25 +0000] "GET /api/todos/all HTTP/1.1" 500 33
::1 - - [25/Oct/2023:16:05:00 +0000] "GET /api/todos HTTP/1.1" 404 148
::1 - - [25/Oct/2023:16:05:03 +0000] "GET /api/todos/all HTTP/1.1" 200 1131
::1 - - [25/Oct/2023:16:05:20 +0000] "GET /api/todos/2 HTTP/1.1" 200 167
::ffff:127.0.0.1 - - [25/Oct/2023:16:06:08 +0000] "GET /api/todos/all HTTP/1.1" 200 1131
::ffff:127.0.0.1 - - [25/Oct/2023:16:06:28 +0000] "GET /api/todos/add HTTP/1.1" 500 33
::ffff:127.0.0.1 - - [25/Oct/2023:16:07:15 +0000] "POST /api/todos/add HTTP/1.1" 200 151
::ffff:172.18.0.1 - - [25/Oct/2023:16:25:27 +0000] "POST /api/todos/check HTTP/1.1" 404 155
::ffff:172.18.0.1 - - [25/Oct/2023:16:25:31 +0000] "GET /api/todos/check HTTP/1.1" 200 25
::ffff:172.18.0.1 - - [25/Oct/2023:16:32:32 +0000] "GET /api/todos/check HTTP/1.1" 200 25
::ffff:172.18.0.1 - - [25/Oct/2023:16:32:37 +0000] "GET /api/todos/all HTTP/1.1" 500 33
::ffff:127.0.0.1 - - [25/Oct/2023:16:35:14 +0000] "GET /api/todos/all HTTP/1.1" 200 1237
::ffff:127.0.0.1 - - [25/Oct/2023:16:43:13 +0000] "GET /api/todos/all HTTP/1.1" 200 1237
::ffff:127.0.0.1 - - [25/Oct/2023:16:43:18 +0000] "GET /api/todos/3 HTTP/1.1" 404 28
::ffff:127.0.0.1 - - [25/Oct/2023:16:43:22 +0000] "GET /api/todos/4 HTTP/1.1" 404 28
::ffff:127.0.0.1 - - [25/Oct/2023:16:43:25 +0000] "GET /api/todos/5 HTTP/1.1" 404 28
::ffff:127.0.0.1 - - [25/Oct/2023:16:43:33 +0000] "GET /api/todos/2 HTTP/1.1" 200 167
::ffff:127.0.0.1 - - [25/Oct/2023:16:43:37 +0000] "GET /api/todos/all HTTP/1.1" 200 1237
::ffff:127.0.0.1 - - [25/Oct/2023:16:44:30 +0000] "GET /api/todos/all HTTP/1.1" 200 1237
::ffff:127.0.0.1 - - [25/Oct/2023:16:44:34 +0000] "POST /api/todos/all HTTP/1.1" 404 153
::ffff:127.0.0.1 - - [25/Oct/2023:16:44:49 +0000] "POST /api/todos/all HTTP/1.1" 404 153
::ffff:127.0.0.1 - - [25/Oct/2023:16:44:58 +0000] "POST /api/todos/all HTTP/1.1" 404 153
::ffff:127.0.0.1 - - [25/Oct/2023:16:45:17 +0000] "POST /api/todos/add HTTP/1.1" 200 151
::ffff:172.19.0.1 - - [25/Oct/2023:16:52:21 +0000] "GET /api/todos/check HTTP/1.1" 200 25
::ffff:172.19.0.1 - - [25/Oct/2023:16:53:21 +0000] "GET /api/todos/all HTTP/1.1" 500 33
::ffff:172.19.0.1 - - [25/Oct/2023:16:53:56 +0000] "GET /api/todos/all HTTP/1.1" 500 33
::1 - - [26/Oct/2023:03:44:52 +0000] "GET /api/todos/all HTTP/1.1" 200 1347
::1 - - [26/Oct/2023:03:45:03 +0000] "GET /favicon.ico HTTP/1.1" 404 150
::1 - - [26/Oct/2023:03:45:03 +0000] "GET /api/todos/1 HTTP/1.1" 404 28
::1 - - [26/Oct/2023:03:45:03 +0000] "GET /api/todos/1 HTTP/1.1" 404 28
::1 - - [26/Oct/2023:03:45:07 +0000] "GET /api/todos/2 HTTP/1.1" 304 -
::ffff:172.18.0.1 - - [26/Oct/2023:04:58:52 +0000] "GET /api/todo/all HTTP/1.1" 404 151
::ffff:172.18.0.1 - - [26/Oct/2023:04:58:59 +0000] "GET /api/todo/check HTTP/1.1" 404 153
::ffff:172.18.0.1 - - [26/Oct/2023:04:59:00 +0000] "GET /api/todo/check HTTP/1.1" 404 153
::ffff:172.18.0.1 - - [26/Oct/2023:04:59:07 +0000] "GET /api/todos/check HTTP/1.1" 200 25
::ffff:172.18.0.1 - - [26/Oct/2023:04:59:11 +0000] "GET /api/todos/all HTTP/1.1" 500 33
::ffff:172.18.0.1 - - [26/Oct/2023:04:59:12 +0000] "GET /api/todos/all HTTP/1.1" 500 33
::ffff:172.18.0.1 - - [26/Oct/2023:04:59:27 +0000] "POST /api/todos/add HTTP/1.1" 500 33
::ffff:172.18.0.1 - - [26/Oct/2023:04:59:29 +0000] "POST /api/todos/add HTTP/1.1" 500 33
::ffff:172.19.0.1 - - [26/Oct/2023:05:07:15 +0000] "POST /api/todos/check HTTP/1.1" 404 155
::ffff:172.19.0.1 - - [26/Oct/2023:05:07:18 +0000] "GET /api/todos/check HTTP/1.1" 200 25
::ffff:172.19.0.1 - - [26/Oct/2023:05:07:37 +0000] "GET /api/todos/all HTTP/1.1" 500 33
::ffff:172.20.0.1 - - [26/Oct/2023:05:40:43 +0000] "GET /api/todos/check HTTP/1.1" 200 25
::ffff:172.20.0.1 - - [26/Oct/2023:05:40:47 +0000] "GET /api/todos/all HTTP/1.1" 500 33
::ffff:172.20.0.1 - - [26/Oct/2023:05:40:49 +0000] "GET /api/todos/all HTTP/1.1" 500 33
::ffff:172.20.0.1 - - [26/Oct/2023:05:40:49 +0000] "GET /api/todos/all HTTP/1.1" 500 33
::1 - - [26/Oct/2023:09:29:08 +0000] "GET /api/todos/all HTTP/1.1" 304 -
::1 - - [26/Oct/2023:09:29:09 +0000] "GET /favicon.ico HTTP/1.1" 404 150
::1 - - [26/Oct/2023:15:19:29 +0000] "GET /api/todos/check HTTP/1.1" 200 25
::1 - - [26/Oct/2023:15:19:29 +0000] "GET /favicon.ico HTTP/1.1" 404 150
::1 - - [26/Oct/2023:15:19:33 +0000] "GET /api/todos/all HTTP/1.1" 304 -
::1 - - [26/Oct/2023:15:19:44 +0000] "GET /api/todos/all HTTP/1.1" 304 -
::1 - - [26/Oct/2023:15:19:56 +0000] "GET /api/todos/all HTTP/1.1" 304 -
::1 - - [26/Oct/2023:15:56:25 +0000] "GET /api/todos/check HTTP/1.1" 304 -
::1 - - [26/Oct/2023:15:56:29 +0000] "GET /api/todos/all HTTP/1.1" 200 313
::1 - - [26/Oct/2023:15:58:31 +0000] "GET /api/todos/all HTTP/1.1" 304 -
::ffff:127.0.0.1 - - [26/Oct/2023:16:00:16 +0000] "POST /api/todos/add HTTP/1.1" 200 149
::ffff:127.0.0.1 - - [26/Oct/2023:16:00:17 +0000] "GET /api/todos/all HTTP/1.1" 200 417
::ffff:127.0.0.1 - - [26/Oct/2023:16:00:17 +0000] "GET /api/todos/20 HTTP/1.1" 404 28
::ffff:127.0.0.1 - - [26/Oct/2023:16:00:17 +0000] "PUT /api/todos/edit/undefined HTTP/1.1" 500 50
::ffff:127.0.0.1 - - [26/Oct/2023:16:00:17 +0000] "DELETE /api/todos/delete/undefined HTTP/1.1" 500 50
::ffff:127.0.0.1 - - [26/Oct/2023:16:01:37 +0000] "POST /api/todos/add HTTP/1.1" 200 149
::ffff:127.0.0.1 - - [26/Oct/2023:16:01:37 +0000] "GET /api/todos/all HTTP/1.1" 200 521
::ffff:127.0.0.1 - - [26/Oct/2023:16:01:37 +0000] "GET /api/todos/4 HTTP/1.1" 200 156
::ffff:127.0.0.1 - - [26/Oct/2023:16:01:38 +0000] "PUT /api/todos/edit/4 HTTP/1.1" 200 161
::ffff:127.0.0.1 - - [26/Oct/2023:16:01:38 +0000] "DELETE /api/todos/delete/4 HTTP/1.1" 200 48
::1 - - [26/Oct/2023:16:02:32 +0000] "GET /api/todos/all HTTP/1.1" 200 417
::ffff:172.18.0.1 - - [26/Oct/2023:16:58:49 +0000] "GET /api/todos/check HTTP/1.1" 200 25
::ffff:172.18.0.1 - - [26/Oct/2023:16:58:53 +0000] "GET /api/todos/check HTTP/1.1" 200 25
::ffff:172.18.0.1 - - [26/Oct/2023:16:59:25 +0000] "GET /api/todos/check HTTP/1.1" 200 25
::ffff:172.18.0.1 - - [26/Oct/2023:16:59:30 +0000] "GET /api/todos/all HTTP/1.1" 500 33
::ffff:172.18.0.1 - - [26/Oct/2023:16:59:34 +0000] "GET /api/todos/all HTTP/1.1" 500 33
::ffff:172.18.0.1 - - [26/Oct/2023:16:59:35 +0000] "GET /api/todos/all HTTP/1.1" 500 33
::ffff:172.18.0.1 - - [26/Oct/2023:16:59:36 +0000] "GET /api/todos/all HTTP/1.1" 500 33
::ffff:172.18.0.1 - - [26/Oct/2023:16:59:37 +0000] "GET /api/todos/all HTTP/1.1" 500 33
::ffff:172.18.0.1 - - [26/Oct/2023:16:59:37 +0000] "GET /api/todos/all HTTP/1.1" 500 33
::ffff:172.18.0.1 - - [26/Oct/2023:16:59:38 +0000] "GET /api/todos/all HTTP/1.1" 500 33
::ffff:172.18.0.1 - - [26/Oct/2023:17:00:38 +0000] "GET /api/todos/all HTTP/1.1" 500 33
::ffff:172.18.0.1 - - [26/Oct/2023:17:00:47 +0000] "POST /api/todos/add HTTP/1.1" 500 33
::1 - - [26/Oct/2023:18:12:39 +0000] "GET /api/todos HTTP/1.1" 404 148
::1 - - [26/Oct/2023:18:12:43 +0000] "GET /api/todos/all HTTP/1.1" 304 -
::1 - - [26/Oct/2023:18:13:50 +0000] "GET /api/todos/all HTTP/1.1" 304 -
::ffff:172.20.0.1 - - [26/Oct/2023:18:21:46 +0000] "GET /api/todos/check HTTP/1.1" 200 25
::ffff:172.20.0.1 - - [26/Oct/2023:18:21:57 +0000] "GET /api/todos/all HTTP/1.1" 500 33
::ffff:172.20.0.1 - - [26/Oct/2023:18:22:30 +0000] "GET /api/todos/all HTTP/1.1" 500 33
::ffff:172.20.0.1 - - [26/Oct/2023:18:22:32 +0000] "GET /api/todos/all HTTP/1.1" 500 33
::ffff:172.20.0.1 - - [26/Oct/2023:18:22:34 +0000] "GET /api/todos/all HTTP/1.1" 500 33
::ffff:172.20.0.1 - - [26/Oct/2023:18:22:52 +0000] "GET /api/todos/all HTTP/1.1" 500 33
::ffff:172.20.0.1 - - [26/Oct/2023:18:22:58 +0000] "GET /api/todos/all HTTP/1.1" 500 33
::ffff:172.20.0.1 - - [26/Oct/2023:18:23:05 +0000] "POST /api/todos/add HTTP/1.1" 500 33
::ffff:172.20.0.1 - - [26/Oct/2023:18:25:58 +0000] "GET /api/todos/all HTTP/1.1" 500 33
::ffff:172.20.0.1 - - [26/Oct/2023:18:26:02 +0000] "GET /api/todos/all HTTP/1.1" 500 33
::ffff:172.20.0.1 - - [26/Oct/2023:18:26:03 +0000] "GET /api/todos/all HTTP/1.1" 500 33
::ffff:172.20.0.1 - - [26/Oct/2023:18:27:52 +0000] "GET /api/todos/all HTTP/1.1" 500 33
::ffff:172.20.0.1 - - [26/Oct/2023:18:27:55 +0000] "GET /api/todos/all HTTP/1.1" 500 33
::ffff:172.20.0.1 - - [26/Oct/2023:18:27:56 +0000] "GET /api/todos/all HTTP/1.1" 500 33
::ffff:172.20.0.1 - - [26/Oct/2023:18:27:56 +0000] "GET /api/todos/all HTTP/1.1" 500 33
::ffff:127.0.0.1 - - [26/Oct/2023:18:30:19 +0000] "GET /api/todos/all HTTP/1.1" 200 417
::ffff:172.18.0.1 - - [26/Oct/2023:18:55:43 +0000] "GET /api/todos/all HTTP/1.1" 500 33
::ffff:172.18.0.1 - - [26/Oct/2023:18:55:51 +0000] "GET /api/todos/check HTTP/1.1" 200 25
::ffff:172.18.0.1 - - [26/Oct/2023:18:55:56 +0000] "GET /api/todos/all HTTP/1.1" 500 33
::ffff:172.18.0.1 - - [26/Oct/2023:18:56:03 +0000] "POST /api/todos/add HTTP/1.1" 500 33
::ffff:172.18.0.1 - - [26/Oct/2023:18:56:30 +0000] "GET /api/todos/all HTTP/1.1" 500 33
::ffff:172.18.0.1 - - [26/Oct/2023:18:56:31 +0000] "GET /api/todos/all HTTP/1.1" 500 33
::ffff:172.18.0.1 - - [26/Oct/2023:18:58:43 +0000] "GET /api/todos/all HTTP/1.1" 500 33
::ffff:172.18.0.1 - - [26/Oct/2023:18:58:44 +0000] "GET /api/todos/all HTTP/1.1" 500 33
::ffff:172.18.0.1 - - [26/Oct/2023:18:58:44 +0000] "GET /api/todos/all HTTP/1.1" 500 33
::ffff:172.18.0.1 - - [26/Oct/2023:18:58:44 +0000] "GET /api/todos/all HTTP/1.1" 500 33
::ffff:172.18.0.1 - - [26/Oct/2023:18:58:45 +0000] "GET /api/todos/all HTTP/1.1" 500 33
::ffff:172.18.0.1 - - [26/Oct/2023:18:58:45 +0000] "GET /api/todos/all HTTP/1.1" 500 33
::ffff:172.18.0.1 - - [26/Oct/2023:18:58:45 +0000] "GET /api/todos/all HTTP/1.1" 500 33
::ffff:172.18.0.1 - - [26/Oct/2023:18:58:45 +0000] "GET /api/todos/all HTTP/1.1" 500 33
::ffff:172.18.0.1 - - [26/Oct/2023:18:58:46 +0000] "GET /api/todos/all HTTP/1.1" 500 33
::ffff:172.18.0.1 - - [26/Oct/2023:18:58:46 +0000] "GET /api/todos/all HTTP/1.1" 500 33
::ffff:172.18.0.1 - - [26/Oct/2023:18:58:47 +0000] "GET /api/todos/all HTTP/1.1" 500 33
::ffff:172.18.0.1 - - [26/Oct/2023:18:58:47 +0000] "GET /api/todos/all HTTP/1.1" 500 33
::ffff:172.18.0.1 - - [26/Oct/2023:18:58:48 +0000] "GET /api/todos/all HTTP/1.1" 500 33
::ffff:172.18.0.1 - - [26/Oct/2023:18:58:48 +0000] "GET /api/todos/all HTTP/1.1" 500 33
::ffff:172.18.0.1 - - [26/Oct/2023:18:58:48 +0000] "GET /api/todos/all HTTP/1.1" 500 33
::ffff:172.18.0.1 - - [26/Oct/2023:18:59:03 +0000] "GET /api/todos/all HTTP/1.1" 500 33
::ffff:172.18.0.1 - - [26/Oct/2023:18:59:03 +0000] "GET /api/todos/all HTTP/1.1" 500 33
::ffff:172.18.0.1 - - [26/Oct/2023:18:59:04 +0000] "GET /api/todos/all HTTP/1.1" 500 33
::ffff:172.18.0.1 - - [26/Oct/2023:18:59:04 +0000] "GET /api/todos/all HTTP/1.1" 500 33
::ffff:172.18.0.1 - - [26/Oct/2023:18:59:05 +0000] "GET /api/todos/all HTTP/1.1" 500 33
::ffff:172.19.0.1 - - [26/Oct/2023:19:05:35 +0000] "GET /api/todos/check HTTP/1.1" 200 25
::ffff:172.19.0.1 - - [26/Oct/2023:19:05:41 +0000] "GET /api/todos/all HTTP/1.1" 500 33
::ffff:172.21.0.1 - - [26/Oct/2023:19:17:05 +0000] "GET /api/todos/all HTTP/1.1" 500 33
::ffff:172.21.0.1 - - [26/Oct/2023:19:17:10 +0000] "GET /api/todos/check HTTP/1.1" 200 25
::ffff:127.0.0.1 - - [26/Oct/2023:19:58:00 +0000] "PUT /api/todos/check HTTP/1.1" 404 154
::ffff:127.0.0.1 - - [26/Oct/2023:19:58:06 +0000] "GET /api/todos/check HTTP/1.1" 200 25
::ffff:127.0.0.1 - - [26/Oct/2023:19:58:10 +0000] "GET /api/todos/all HTTP/1.1" 500 33
::ffff:127.0.0.1 - - [26/Oct/2023:19:58:40 +0000] "GET /api/todos/all HTTP/1.1" 200 11
::ffff:172.23.0.1 - - [26/Oct/2023:20:08:29 +0000] "GET /api/todos/check HTTP/1.1" 200 25
::ffff:172.23.0.1 - - [26/Oct/2023:20:08:50 +0000] "GET /api/todos/all HTTP/1.1" 500 33
::ffff:172.23.0.1 - - [26/Oct/2023:20:09:55 +0000] "GET /api/todos/all HTTP/1.1" 500 33
::ffff:172.23.0.1 - - [26/Oct/2023:20:10:00 +0000] "GET /api/todos/check HTTP/1.1" 200 25
::ffff:172.24.0.1 - - [26/Oct/2023:20:19:38 +0000] "GET /api/todos/check HTTP/1.1" 200 25
::ffff:172.24.0.1 - - [26/Oct/2023:20:25:00 +0000] "GET /api/todos/all HTTP/1.1" 500 33
::ffff:172.25.0.1 - - [26/Oct/2023:20:29:34 +0000] "GET /api/todos/check HTTP/1.1" 200 25
::ffff:172.25.0.1 - - [26/Oct/2023:20:29:36 +0000] "GET /api/todos/all HTTP/1.1" 500 33
::ffff:172.25.0.1 - - [26/Oct/2023:20:29:39 +0000] "GET /api/todos/check HTTP/1.1" 200 25
::ffff:172.25.0.1 - - [26/Oct/2023:20:29:42 +0000] "GET /api/todos/1 HTTP/1.1" 500 33
::ffff:172.25.0.1 - - [26/Oct/2023:20:29:45 +0000] "GET /api/todos/2 HTTP/1.1" 500 33
::ffff:172.25.0.1 - - [26/Oct/2023:20:29:50 +0000] "POST /api/todos/add HTTP/1.1" 500 33
::ffff:172.26.0.1 - - [26/Oct/2023:21:10:47 +0000] "GET /api/todos/check HTTP/1.1" 200 25
::ffff:172.26.0.1 - - [26/Oct/2023:21:10:52 +0000] "GET /api/todos/all HTTP/1.1" 500 33
::ffff:172.27.0.1 - - [26/Oct/2023:21:15:54 +0000] "GET /api/todos/all HTTP/1.1" 500 33
::ffff:172.27.0.1 - - [26/Oct/2023:21:15:58 +0000] "GET /api/todos/check HTTP/1.1" 200 25
::ffff:172.18.0.1 - - [27/Oct/2023:05:45:19 +0000] "GET /api/todos/check HTTP/1.1" 200 25
::ffff:172.18.0.1 - - [27/Oct/2023:05:45:26 +0000] "GET /api/todos/all HTTP/1.1" 500 33
::ffff:172.18.0.1 - - [27/Oct/2023:05:45:28 +0000] "GET /api/todos/all HTTP/1.1" 500 33
::ffff:172.18.0.1 - - [27/Oct/2023:05:55:57 +0000] "GET /api/todos/all HTTP/1.1" 500 33
::ffff:172.18.0.1 - - [27/Oct/2023:05:56:13 +0000] "GET /api/todos/all HTTP/1.1" 500 33
::ffff:172.18.0.1 - - [27/Oct/2023:05:56:13 +0000] "GET /api/todos/all HTTP/1.1" 500 33
::ffff:172.18.0.1 - - [27/Oct/2023:05:56:14 +0000] "GET /api/todos/all HTTP/1.1" 500 33
::ffff:172.18.0.1 - - [27/Oct/2023:05:56:14 +0000] "GET /api/todos/all HTTP/1.1" 500 33
::ffff:127.0.0.1 - - [27/Oct/2023:06:09:12 +0000] "GET /api/todos/all HTTP/1.1" 200 11
::ffff:127.0.0.1 - - [27/Oct/2023:06:52:04 +0000] "GET /api/todos/all HTTP/1.1" 200 11
::ffff:172.20.0.1 - - [27/Oct/2023:07:04:26 +0000] "GET /api/todos/check HTTP/1.1" 200 25
::ffff:172.20.0.1 - - [27/Oct/2023:07:04:29 +0000] "GET /api/todos/all HTTP/1.1" 500 33
::ffff:172.20.0.1 - - [27/Oct/2023:07:05:10 +0000] "GET / HTTP/1.1" 404 139
::ffff:172.20.0.1 - - [27/Oct/2023:07:05:10 +0000] "GET / HTTP/1.1" 404 139
::ffff:172.20.0.1 - - [27/Oct/2023:07:05:26 +0000] "GET /api/todos/check HTTP/1.1" 200 25
::ffff:172.20.0.1 - - [27/Oct/2023:07:05:26 +0000] "GET /favicon.ico HTTP/1.1" 404 150
::ffff:172.20.0.1 - - [27/Oct/2023:07:05:43 +0000] "POST /api/todos/add HTTP/1.1" 500 33
::ffff:172.21.0.1 - - [27/Oct/2023:07:38:37 +0000] "POST /api/todos/check HTTP/1.1" 404 155
::ffff:172.21.0.1 - - [27/Oct/2023:07:38:41 +0000] "GET /api/todos/check HTTP/1.1" 200 25
::ffff:172.21.0.1 - - [27/Oct/2023:07:38:43 +0000] "GET /api/todos/all HTTP/1.1" 500 33
::ffff:172.21.0.1 - - [27/Oct/2023:07:38:51 +0000] "POST /api/todos/add HTTP/1.1" 500 33
::ffff:172.21.0.1 - - [27/Oct/2023:07:39:20 +0000] "POST /api/todos/add HTTP/1.1" 500 33
::ffff:172.21.0.1 - - [27/Oct/2023:07:39:29 +0000] "GET /api/todos/all HTTP/1.1" 500 33
::ffff:172.21.0.1 - - [27/Oct/2023:07:39:39 +0000] "GET /api/todos/all HTTP/1.1" 500 33
::ffff:172.21.0.1 - - [27/Oct/2023:07:39:39 +0000] "GET /api/todos/all HTTP/1.1" 500 33
::ffff:172.21.0.1 - - [27/Oct/2023:07:39:40 +0000] "GET /api/todos/all HTTP/1.1" 500 33
::ffff:172.21.0.1 - - [27/Oct/2023:07:39:40 +0000] "GET /api/todos/all HTTP/1.1" 500 33
::ffff:172.21.0.1 - - [27/Oct/2023:07:40:21 +0000] "GET /api/todos/all HTTP/1.1" 500 33
::ffff:172.21.0.1 - - [27/Oct/2023:07:41:00 +0000] "GET /api/todos/all HTTP/1.1" 500 33
::ffff:172.21.0.1 - - [27/Oct/2023:07:41:02 +0000] "GET /api/todos/all HTTP/1.1" 500 33
::ffff:172.21.0.1 - - [27/Oct/2023:07:41:02 +0000] "GET /api/todos/all HTTP/1.1" 500 33
::ffff:127.0.0.1 - - [27/Oct/2023:07:55:43 +0000] "GET /api/todos/all HTTP/1.1" 200 11
::ffff:127.0.0.1 - - [29/Oct/2023:06:24:23 +0000] "DELETE /api/todos/all HTTP/1.1" 404 155
::ffff:127.0.0.1 - - [29/Oct/2023:06:24:28 +0000] "GET /api/todos/all HTTP/1.1" 200 11
::ffff:127.0.0.1 - - [29/Oct/2023:06:40:09 +0000] "GET /api/todos/all HTTP/1.1" 200 322
